{
    "metadata" : {
                    "title" : "Δίκτυο και διαδίκτυο",
                    "class" : "Δ",
                    "answer" : "14320"
                },
    "draggables" : {
                    "draggable0" : {
                                        "id" : "0", 
                                        "img_src" : "matching/d_003/server.png"
                                    },
                    "draggable1" : {
                                        "id" : "1", 
                                        "img_src" : "matching/d_003/network.png"
                                    },
                    "draggable2" : {
                                        "id" : "2", 
                                        "img_src" : "matching/d_003/router.png"
                                    },
                    "draggable3" : {
                                        "id" : "3", 
                                        "img_src" : "matching/d_003/wifi.png"
                                    },
                    "draggable4" : {
                                        "id" : "4", 
                                        "img_src" : "matching/d_003/internet.png"
                                    }
                    },
    "droppables" : {
                    "droppable0" : {
                                        "id" : "0", 
                                        "text" : "δίκτυο"
                                    },
                    "droppable1" : {
                                        "id" : "1", 
                                        "text" : "διαδίκτυο"
                                    },
                    "droppable2" : {
                                        "id" : "2", 
                                        "text" : "ασύρματη σύνδεση"
                                    },
                    "droppable3" : {
                                        "id" : "3", 
                                        "text" : "δρομολογητής"
                                    },
                    "droppable4" : {
                                        "id" : "4", 
                                        "text" : "εξυπηρετητής"
                                    }
                    }
}
